…
city_summary <- 
  homicide1 |>
  group_by(city_state) |>
  summarize(
    total_homicides = n(),
    unsolved_homicides = sum(disposition %in% c("Closed without arrest", "Open/No arrest"))
  )
city_summary
```

    ## # A tibble: 51 × 3
    ##    city_state      total_homicides unsolved_homicides
    ##    <chr>                     <int>              <int>
    ##  1 Albuquerque, NM             378                146
    ##  2 Atlanta, GA                 973                373
    ##  3 Baltimore, MD              2827               1825
    ##  4 Baton Rouge, LA             424                196
    ##  5 Birmingham, AL              800                347
    ##  6 Boston, MA                  614                310
    ##  7 Buffalo, NY                 521                319
    ##  8 Charlotte, NC               687                206
    ##  9 Chicago, IL                5535               4073
    ## 10 Cincinnati, OH              694                309
    ## # ℹ 41 more rows
…
``` r
prop_test_results =
  city_summary |>
  mutate(test_result = map2(unsolved_homicides, total_homicides, ~prop.test(x = .x, n = .y))) |>
  mutate(tidy_result = map(test_result, tidy)) |>
  unnest(tidy_result)
prop_test_results
```

    ## # A tibble: 51 × 12
    ##    city_state  total_homicides unsolved_homicides test_result estimate statistic
    ##    <chr>                 <int>              <int> <list>         <dbl>     <dbl>
    ##  1 Albuquerqu…             378                146 <htest>        0.386   19.1   
    ##  2 Atlanta, GA             973                373 <htest>        0.383   52.5   
    ##  3 Baltimore,…            2827               1825 <htest>        0.646  239.    
    ##  4 Baton Roug…             424                196 <htest>        0.462    2.27  
    ##  5 Birmingham…             800                347 <htest>        0.434   13.8   
    ##  6 Boston, MA              614                310 <htest>        0.505    0.0407
    ##  7 Buffalo, NY             521                319 <htest>        0.612   25.8   
    ##  8 Charlotte,…             687                206 <htest>        0.300  109.    
    ##  9 Chicago, IL            5535               4073 <htest>        0.736 1231.    
    ## 10 Cincinnati…             694                309 <htest>        0.445    8.11  
    ## # ℹ 41 more rows
    ## # ℹ 6 more variables: p.value <dbl>, parameter <int>, conf.low <dbl>,
    ## #   conf.high <dbl>, method <chr>, alternative <chr>
…
``` r
combined_data1 = 
  combinedata |>
  pivot_longer(
    week_1:week_8, 
    names_to = "week",
    values_to = "observations_over_time"
  )
combined_data1
```

    ## # A tibble: 160 × 4
    ##    SubjectID Arm     week   observations_over_time
    ##    <chr>     <chr>   <chr>                   <dbl>
    ##  1 01        Control week_1                   0.2 
    ##  2 01        Control week_2                  -1.31
    ##  3 01        Control week_3                   0.66
    ##  4 01        Control week_4                   1.96
    ##  5 01        Control week_5                   0.23
    ##  6 01        Control week_6                   1.09
    ##  7 01        Control week_7                   0.05
    ##  8 01        Control week_8                   1.94
    ##  9 02        Control week_1                   1.13
    ## 10 02        Control week_2                  -0.88
    ## # ℹ 150 more rows
…
``` r
sim_result_df =
  expand_grid(
    mu = 1:6,
    iter = 1:5000
  ) |> 
  mutate(estimate_df = map(mu, ~sim_t_test(.x))) |> 
  unnest(estimate_df)
sim_result_df
```

    ## # A tibble: 30,000 × 10
    ##       mu  iter estimate statistic p.value parameter conf.low conf.high method   
    ##    <int> <int>    <dbl>     <dbl>   <dbl>     <dbl>    <dbl>     <dbl> <chr>    
    ##  1     1     1   -0.913    -1.13   0.267         29   -2.56      0.736 One Samp…
    ##  2     1     2    1.51      1.46   0.156         29   -0.612     3.64  One Samp…
    ##  3     1     3    1.51      1.47   0.153         29   -0.592     3.61  One Samp…
    ##  4     1     4    0.802     0.969  0.341         29   -0.892     2.50  One Samp…
    ##  5     1     5    2.01      2.46   0.0203        29    0.336     3.68  One Samp…
    ##  6     1     6    1.05      1.52   0.140         29   -0.368     2.48  One Samp…
    ##  7     1     7   -0.923    -1.21   0.234         29   -2.48      0.631 One Samp…
    ##  8     1     8   -0.261    -0.347  0.731         29   -1.80      1.28  One Samp…
    ##  9     1     9    0.882     1.02   0.315         29   -0.881     2.64  One Samp…
    ## 10     1    10    0.472     0.479  0.636         29   -1.54      2.49  One Samp…
    ## # ℹ 29,990 more rows
    ## # ℹ 1 more variable: alternative <chr>
…
